…
The “all requested files loaded” refers to arguments `include` and
`exclude` whose default settings skip loading certain large files, like
weather inputs, until they are needed. Read more about this in `?rswat`.

### File index

Get a list of all files in your SWAT+ project (loaded or not) using
`rswat_files`

``` r
rswat_files()
#> 222 files in D:/rswat_data/swat/soda_test
#> # A tibble: 222 × 10
#>    file           group      type   n_line n_var n_table        size modified            known loaded
#>    <chr>          <chr>      <chr>   <int> <int>   <int> [kilobytes] <dttm>              <lgl> <lgl> 
#>  1 file.cio       cio        config     29    18       1       3.4   2023-07-27 19:20:14 TRUE  TRUE  
#>  2 object.cnt     simulation config      1    21       1       0.674 2023-07-27 19:20:14 TRUE  TRUE  
#>  3 print.prt      simulation config     42    19       5       3.39  2023-07-27 19:20:14 TRUE  TRUE  
#>  4 time.sim       simulation config      1     5       1       0.169 2023-07-27 19:20:14 TRUE  TRUE  
#>  5 codes.bsn      basin      config      1    24       1       0.598 2023-07-27 19:20:14 TRUE  TRUE  
#>  6 parameters.bsn basin      config      1    44       1       1.3   2023-07-27 19:20:14 TRUE  TRUE  
#>  7 hmd.cli        climate    config     15     1       1       0.248 2023-07-27 19:20:14 TRUE  TRUE  
#>  8 pcp.cli        climate    config     15     1       1       0.259 2023-07-27 19:20:14 TRUE  TRUE  
#>  9 slr.cli        climate    config     15     1       1       0.291 2023-07-27 19:20:14 TRUE  TRUE  
#> 10 tmp.cli        climate    config     15     1       1       0.257 2023-07-27 19:20:14 TRUE  TRUE  
#> # ℹ 212 more rows
```
…
Repeating the call with `fuzzy=1` produces the unique result ‘pet’. We
can see that this variable is stored in the file ‘codes.bsn’. Pass a
file name in `pattern` to report on all the variables in the file

``` r
rswat_find(pattern='codes.bsn')
#> 24 parameters(s) found in codes.bsn
#> looking up definitions...
#> # A tibble: 24 × 8
#>    file      group table class     name      alias     match desc                                          
#>    <chr>     <chr> <dbl> <chr>     <chr>     <chr>     <chr> <chr>                                         
#>  1 codes.bsn basin     1 character pet_file  "petfile" **    Potential ET filename                         
#>  2 codes.bsn basin     1 character wq_file   "wwqfile" **    Watershed stream water quality filename       
#>  3 codes.bsn basin     1 integer   pet       ""        ***   Potential evapotranspiration (PET) method. Th…
#>  4 codes.bsn basin     1 integer   event     ""        ***   Rainfall/runoff/routing option: 0   daily rai…
#>  5 codes.bsn basin     1 integer   crack     "crk"     *     Crack flow code. There are two options: 0 do …
#>  6 codes.bsn basin     1 integer   swift_out "subwq"   *     Subbasin water quality code. The algorithms u…
#>  7 codes.bsn basin     1 integer   sed_det   ""        ***   Code governing calculation of daily maximum h…
#>  8 codes.bsn basin     1 integer   rte_cha   "rte"     **    Channel water routing method: 0 variable stor…
#>  9 codes.bsn basin     1 integer   deg_cha   "deg"     **    Channel degradation code. There are two optio…
#> 10 codes.bsn basin     1 integer   wq_cha    "wq"      **    In-stream water quality code. The variable id…
#> # ℹ 14 more rows
```
…
### Documentation

`rswat` includes a plaintext copy of the SWAT+ documentation PDF to make
it more accessible in the R environment. Call `rswat_docs` to get
`tibble` of results for a search query. Searching for a file name will
usually pull up a full definitions list, along with information about
where in the PDF this text can be found.

``` r
rswat_docs('codes.bsn')
#> 24 definition(s) found for codes.bsn
#> # A tibble: 24 × 5
#>     page  line file      name    desc                                                                      
#>    <int> <int> <chr>     <chr>   <chr>                                                                     
#>  1    18     6 codes.bsn petfile Potential ET filename                                                     
#>  2    18     7 codes.bsn wwqfile Watershed stream water quality filename                                   
#>  3    18     8 codes.bsn pet     Potential evapotranspiration (PET) method. There are four options for pot…
#>  4    18    24 codes.bsn event   Rainfall/runoff/routing option: 0   daily rainfall/curve number runoff/da…
#>  5    18    29 codes.bsn crk     Crack flow code. There are two options: 0 do not model crack flow in soil…
#>  6    19     2 codes.bsn subwq   Subbasin water quality code. The algorithms used to calculate loadings of…
#>  7    19    15 codes.bsn sed_det Code governing calculation of daily maximum half-hour rainfall value: 0  …
#>  8    19    27 codes.bsn rte     Channel water routing method: 0 variable storage method 1 Muskingum metho…
#>  9    19    34 codes.bsn deg     Channel degradation code. There are two options: 0 channel dimensions are…
#> 10    20     2 codes.bsn wq      In-stream water quality code. The variable identifies whether in-stream t…
#> # ℹ 14 more rows
```
…
In the latest release the simulator file for Windows is called
‘rev60.5.7_64rel.exe’ and it can be found in the
‘SWAT/SWATPlus/SWATPlusEditor’ directory tree. Standalone versions can
also be downloaded if you are unsure which executable to use.

Once the path is set, call `rswat_exec()` to run the simulator and write
output to your project directory.

``` r
rswat_exec()
#> SWAT+ simulation finished in 7.54 seconds
#> 7 log and 64 output and 10 unknown files were written
#> # A tibble: 81 × 2
#>    file             type  
#>    <chr>            <chr> 
#>  1 area_calc.out    log   
#>  2 checker.out      log   
#>  3 diagnostics.out  log   
#>  4 erosion.out      log   
#>  5 files_out.out    log   
#>  6 simulation.out   log   
#>  7 success.fin      log   
#>  8 aquifer_aa.txt   output
#>  9 aquifer_yr.txt   output
#> 10 basin_aqu_aa.txt output
#> # ℹ 71 more rows
```
…
